…
library(magrittr)
library(lubridate)
library(tidyr)
library(dplyr)
library(ggplot2)
library(cowplot)
df1 <- read_csv("javi.csv")
df1$strain <- df1$line
df1 <- separate(df1, line, into = c("treatment", "line"))
df1$lag <- hms(df1$lag)
df1$lag <- hour(df1$lag) * 60 + minute(df1$lag) + second(df1$lag) / 60
df1
```
```
# A tibble: 1,152 × 10
   treatment  line   rep  well  vmax     t_vmax      lag final_OD plate  strain
*      <chr> <chr> <int> <chr> <dbl>     <time>    <dbl>    <dbl> <int>   <chr>
1         WT     1     1    A1   4.0  8700 secs 50.75000    1.096     1 WT 1 C2
2         WT     1     2    B1   4.0  9300 secs 54.25000    1.070     1 WT 1 C2
3         WT     1     3    C1   3.9  9300 secs 51.53333    1.071     1 WT 1 C2
4         WT     1     4    D1   3.9  8700 secs 52.56667    1.078     1 WT 1 C2
5         WT     1     5    E1   4.0  9900 secs 55.75000    1.073     1 WT 1 C2
6         WT     1     6    F1   4.0  9300 secs 56.75000    1.087     1 WT 1 C2
7         WT     1     7    G1   4.0 10500 secs 56.50000    1.080     1 WT 1 C2
8         WT     1     8    H1   3.9  9900 secs 54.36667    1.095     1 WT 1 C2
9         WT     1     9    I1   4.0  9300 secs 54.50000    1.087     1 WT 1 C2
10        WT     1    10    J1   4.1  9300 secs 57.31667    1.096     1 WT 1 C2
# ... with 1,142 more rows
```
…
